model heat_transfer_model [
  constitutive_law heat_diffusion [
     name = test
     density = 8940
     capacity = 385
     conductivity = [[401,   0,   0], \
                     [0,   401,   0], \
	            	 [0,     0, 401]]
  ]
]



